{
    "count": 964,
    "next": "https://pokeapi.co/api/v2/pokemon?offset=1&limit=1",
    "previous": null,
    "results": [
        {
            "name": "bulbasaur",
            "url": "https://pokeapi.co/api/v2/pokemon/1/"
        },
        {
            "name": "greeninja",
            "url": "https://pokeapi.co/api/v2/pokemon/100/"
        }
    ]
}